PopKodi():Logfile is /mnt/rpicache/popkodi.log
global_CreateMap():Mapping OKee, v2.1
popkodi():Kill LCDd PID=0
PopKodi-v1.00-00 : Build:Nov  1 2015 22:17:04
rcu_Process(): LIRC thread now running: pid=8435
LCD_Open():...

lcd_WriteExp():Reg[10]=0x0
lcd_WriteExp():Reg[0]=0x1f
lcd_WriteExp():Reg[1]=0x0
lcd_WriteExp():Reg[12]=0x1f
lcd_WriteExp():Reg[13]=0x0

lcd_WriteLcd(0x0):0x33
lcd_WriteExp():Reg[19]=0x38
lcd_WriteExp():Reg[19]=0x18
lcd_WriteExp():Reg[19]=0x38
lcd_WriteExp():Reg[19]=0x18
lcd_ShowHd44780Data: RS RW  [7 6 5 4 3 2 1 0]
lcd_ShowHd44780Data: 0  0   [0 0 1 1 0 0 1 1 ]
lcd_WriteLcd(0x0):0x32
lcd_WriteExp():Reg[19]=0x38
lcd_WriteExp():Reg[19]=0x18
lcd_WriteExp():Reg[19]=0x38
lcd_WriteExp():Reg[19]=0x18
lcd_ShowHd44780Data: RS RW  [7 6 5 4 3 2 1 0]
lcd_ShowHd44780Data: 0  0   [0 0 1 1 0 0 1 1 ]
lcd_WriteLcd(0x0):0x28
lcd_WriteExp():Reg[19]=0x28
lcd_WriteExp():Reg[19]=0x8
lcd_WriteExp():Reg[19]=0x2a
lcd_WriteExp():Reg[19]=0xa
lcd_ShowHd44780Data: RS RW  [7 6 5 4 3 2 1 0]
lcd_ShowHd44780Data: 0  0   [0 0 1 0 1 0 1 0 ]
lcd_WriteLcd(0x0):0x8
lcd_WriteExp():Reg[19]=0x20
lcd_WriteExp():Reg[19]=0x0
lcd_WriteExp():Reg[19]=0x22
lcd_WriteExp():Reg[19]=0x2
lcd_ShowHd44780Data: RS RW  [7 6 5 4 3 2 1 0]
lcd_ShowHd44780Data: 0  0   [0 0 0 0 1 0 0 0 ]
lcd_WriteLcd(0x0):0xc
lcd_WriteExp():Reg[19]=0x20
lcd_WriteExp():Reg[19]=0x0
lcd_WriteExp():Reg[19]=0x26
lcd_WriteExp():Reg[19]=0x6
lcd_ShowHd44780Data: RS RW  [7 6 5 4 3 2 1 0]
lcd_ShowHd44780Data: 0  0   [0 0 0 0 1 1 0 0 ]
lcd_WriteLcd(0x0):0xe
lcd_WriteExp():Reg[19]=0x20
lcd_WriteExp():Reg[19]=0x0
lcd_WriteExp():Reg[19]=0x2e
lcd_WriteExp():Reg[19]=0xe
lcd_ShowHd44780Data: RS RW  [7 6 5 4 3 2 1 0]
lcd_ShowHd44780Data: 0  0   [0 0 0 0 1 1 1 0 ]
lcd_WriteLcd(0x0):0xf
lcd_WriteExp():Reg[19]=0x20
lcd_WriteExp():Reg[19]=0x0
lcd_WriteExp():Reg[19]=0x3e
lcd_WriteExp():Reg[19]=0x1e
lcd_ShowHd44780Data: RS RW  [7 6 5 4 3 2 1 0]
lcd_ShowHd44780Data: 0  0   [0 0 0 0 1 1 1 1 ]
lcd_WriteLcd(0x0):0x1
lcd_WriteExp():Reg[19]=0x20
lcd_WriteExp():Reg[19]=0x0
lcd_WriteExp():Reg[19]=0x30
lcd_WriteExp():Reg[19]=0x10
lcd_ShowHd44780Data: RS RW  [7 6 5 4 3 2 1 0]
lcd_ShowHd44780Data: 0  0   [0 0 0 0 0 0 0 1 ]
lcd_WriteLcd(0x0):0x2
lcd_WriteExp():Reg[19]=0x20
lcd_WriteExp():Reg[19]=0x0
lcd_WriteExp():Reg[19]=0x28
lcd_WriteExp():Reg[19]=0x8
lcd_ShowHd44780Data: RS RW  [7 6 5 4 3 2 1 0]
lcd_ShowHd44780Data: 0  0   [0 0 0 0 0 0 1 0 ]

lcd_WriteLcd(0x80):0x30
lcd_WriteExp():Reg[19]=0xb8
lcd_WriteExp():Reg[19]=0x98
lcd_WriteExp():Reg[19]=0xb8
lcd_WriteExp():Reg[19]=0x98
lcd_ShowHd44780Data: RS RW  [7 6 5 4 3 2 1 0]
lcd_ShowHd44780Data: 1  0   [0 0 1 1 0 0 1 1 ]

lcd_WriteLcd(0x80):0x31
lcd_WriteExp():Reg[19]=0xb8
lcd_WriteExp():Reg[19]=0x98
lcd_WriteExp():Reg[19]=0xb8
lcd_WriteExp():Reg[19]=0x98
lcd_ShowHd44780Data: RS RW  [7 6 5 4 3 2 1 0]
lcd_ShowHd44780Data: 1  0   [0 0 1 1 0 0 1 1 ]

lcd_WriteLcd(0x80):0x32
lcd_WriteExp():Reg[19]=0xb8
lcd_WriteExp():Reg[19]=0x98
lcd_WriteExp():Reg[19]=0xb8
lcd_WriteExp():Reg[19]=0x98
lcd_ShowHd44780Data: RS RW  [7 6 5 4 3 2 1 0]
lcd_ShowHd44780Data: 1  0   [0 0 1 1 0 0 1 1 ]

lcd_WriteLcd(0x0):0x80
lcd_WriteExp():Reg[19]=0x22
lcd_WriteExp():Reg[19]=0x2
lcd_WriteExp():Reg[19]=0x22
lcd_WriteExp():Reg[19]=0x2
lcd_ShowHd44780Data: RS RW  [7 6 5 4 3 2 1 0]
lcd_ShowHd44780Data: 0  0   [1 0 0 0 1 0 0 0 ]

lcd_WriteLcd(0x80):0x33
lcd_WriteExp():Reg[19]=0xb8
lcd_WriteExp():Reg[19]=0x98
lcd_WriteExp():Reg[19]=0xb8
lcd_WriteExp():Reg[19]=0x98
lcd_ShowHd44780Data: RS RW  [7 6 5 4 3 2 1 0]
lcd_ShowHd44780Data: 1  0   [0 0 1 1 0 0 1 1 ]

lcd_WriteLcd(0x80):0x34
lcd_WriteExp():Reg[19]=0xb8
lcd_WriteExp():Reg[19]=0x98
lcd_WriteExp():Reg[19]=0xbc
lcd_WriteExp():Reg[19]=0x9c
lcd_ShowHd44780Data: RS RW  [7 6 5 4 3 2 1 0]
lcd_ShowHd44780Data: 1  0   [0 0 1 1 0 1 1 1 ]

lcd_WriteLcd(0x80):0x35
lcd_WriteExp():Reg[19]=0xb8
lcd_WriteExp():Reg[19]=0x98
lcd_WriteExp():Reg[19]=0xbc
lcd_WriteExp():Reg[19]=0x9c
lcd_ShowHd44780Data: RS RW  [7 6 5 4 3 2 1 0]
lcd_ShowHd44780Data: 1  0   [0 0 1 1 0 1 1 1 ]
lcd_WriteLcd(0x0):0x8
lcd_WriteExp():Reg[19]=0x20
lcd_WriteExp():Reg[19]=0x0
lcd_WriteExp():Reg[19]=0x22
lcd_WriteExp():Reg[19]=0x2
lcd_ShowHd44780Data: RS RW  [7 6 5 4 3 2 1 0]
lcd_ShowHd44780Data: 0  0   [0 0 0 0 1 0 0 0 ]
lcd_WriteLcd(0x0):0xc
lcd_WriteExp():Reg[19]=0x20
lcd_WriteExp():Reg[19]=0x0
lcd_WriteExp():Reg[19]=0x26
lcd_WriteExp():Reg[19]=0x6
lcd_ShowHd44780Data: RS RW  [7 6 5 4 3 2 1 0]
lcd_ShowHd44780Data: 0  0   [0 0 0 0 1 1 0 0 ]
lcd_WriteLcd(0x0):0xe
lcd_WriteExp():Reg[19]=0x20
lcd_WriteExp():Reg[19]=0x0
lcd_WriteExp():Reg[19]=0x2e
lcd_WriteExp():Reg[19]=0xe
lcd_ShowHd44780Data: RS RW  [7 6 5 4 3 2 1 0]
lcd_ShowHd44780Data: 0  0   [0 0 0 0 1 1 1 0 ]
lcd_WriteLcd(0x0):0xf
lcd_WriteExp():Reg[19]=0x20
lcd_WriteExp():Reg[19]=0x0
lcd_WriteExp():Reg[19]=0x3e
lcd_WriteExp():Reg[19]=0x1e
lcd_ShowHd44780Data: RS RW  [7 6 5 4 3 2 1 0]
lcd_ShowHd44780Data: 0  0   [0 0 0 0 1 1 1 1 ]
lcd_WriteLcd(0x0):0x1
lcd_WriteExp():Reg[19]=0x20
lcd_WriteExp():Reg[19]=0x0
lcd_WriteExp():Reg[19]=0x30
lcd_WriteExp():Reg[19]=0x10
lcd_ShowHd44780Data: RS RW  [7 6 5 4 3 2 1 0]
lcd_ShowHd44780Data: 0  0   [0 0 0 0 0 0 0 1 ]
lcd_WriteLcd(0x0):0x2
lcd_WriteExp():Reg[19]=0x20
lcd_WriteExp():Reg[19]=0x0
lcd_WriteExp():Reg[19]=0x28
lcd_WriteExp():Reg[19]=0x8
lcd_ShowHd44780Data: RS RW  [7 6 5 4 3 2 1 0]
lcd_ShowHd44780Data: 0  0   [0 0 0 0 0 0 1 0 ]
lcd_WriteLcd(0x80):0x30
lcd_WriteExp():Reg[19]=0xb8
lcd_WriteExp():Reg[19]=0x98
lcd_WriteExp():Reg[19]=0xb8
lcd_WriteExp():Reg[19]=0x98
lcd_ShowHd44780Data: RS RW  [7 6 5 4 3 2 1 0]
lcd_ShowHd44780Data: 1  0   [0 0 1 1 0 0 1 1 ]
lcd_WriteLcd(0x80):0x31
lcd_WriteExp():Reg[19]=0xb8
lcd_WriteExp():Reg[19]=0x98
lcd_WriteExp():Reg[19]=0xb8
lcd_WriteExp():Reg[19]=0x98
lcd_ShowHd44780Data: RS RW  [7 6 5 4 3 2 1 0]
lcd_ShowHd44780Data: 1  0   [0 0 1 1 0 0 1 1 ]
lcd_WriteLcd(0x80):0x32
lcd_WriteExp():Reg[19]=0xb8
lcd_WriteExp():Reg[19]=0x98
lcd_WriteExp():Reg[19]=0xb8
lcd_WriteExp():Reg[19]=0x98
lcd_ShowHd44780Data: RS RW  [7 6 5 4 3 2 1 0]
lcd_ShowHd44780Data: 1  0   [0 0 1 1 0 0 1 1 ]
lcd_WriteLcd(0x0):0x80
lcd_WriteExp():Reg[19]=0x22
lcd_WriteExp():Reg[19]=0x2
lcd_WriteExp():Reg[19]=0x22
lcd_WriteExp():Reg[19]=0x2
lcd_ShowHd44780Data: RS RW  [7 6 5 4 3 2 1 0]
lcd_ShowHd44780Data: 0  0   [1 0 0 0 1 0 0 0 ]
lcd_WriteLcd(0x80):0x33
lcd_WriteExp():Reg[19]=0xb8
lcd_WriteExp():Reg[19]=0x98
lcd_WriteExp():Reg[19]=0xb8
lcd_WriteExp():Reg[19]=0x98
lcd_ShowHd44780Data: RS RW  [7 6 5 4 3 2 1 0]
lcd_ShowHd44780Data: 1  0   [0 0 1 1 0 0 1 1 ]
lcd_WriteLcd(0x80):0x34
lcd_WriteExp():Reg[19]=0xb8
lcd_WriteExp():Reg[19]=0x98
lcd_WriteExp():Reg[19]=0xbc
lcd_WriteExp():Reg[19]=0x9c
lcd_ShowHd44780Data: RS RW  [7 6 5 4 3 2 1 0]
lcd_ShowHd44780Data: 1  0   [0 0 1 1 0 1 1 1 ]
lcd_WriteLcd(0x80):0x35
lcd_WriteExp():Reg[19]=0xb8
lcd_WriteExp():Reg[19]=0x98
lcd_WriteExp():Reg[19]=0xbc
lcd_WriteExp():Reg[19]=0x9c
lcd_ShowHd44780Data: RS RW  [7 6 5 4 3 2 1 0]
lcd_ShowHd44780Data: 1  0   [0 0 1 1 0 1 1 1 ]
lcd_WriteLcd(0x0):0x8
lcd_WriteExp():Reg[19]=0x20
lcd_WriteExp():Reg[19]=0x0
lcd_WriteExp():Reg[19]=0x22
lcd_WriteExp():Reg[19]=0x2
lcd_ShowHd44780Data: RS RW  [7 6 5 4 3 2 1 0]
lcd_ShowHd44780Data: 0  0   [0 0 0 0 1 0 0 0 ]
lcd_WriteLcd(0x0):0xc
lcd_WriteExp():Reg[19]=0x20
lcd_WriteExp():Reg[19]=0x0
lcd_WriteExp():Reg[19]=0x26
lcd_WriteExp():Reg[19]=0x6
lcd_ShowHd44780Data: RS RW  [7 6 5 4 3 2 1 0]
lcd_ShowHd44780Data: 0  0   [0 0 0 0 1 1 0 0 ]
lcd_WriteLcd(0x0):0xe
lcd_WriteExp():Reg[19]=0x20
lcd_WriteExp():Reg[19]=0x0
lcd_WriteExp():Reg[19]=0x2e
lcd_WriteExp():Reg[19]=0xe
lcd_ShowHd44780Data: RS RW  [7 6 5 4 3 2 1 0]
lcd_ShowHd44780Data: 0  0   [0 0 0 0 1 1 1 0 ]
lcd_WriteLcd(0x0):0xf
lcd_WriteExp():Reg[19]=0x20
lcd_WriteExp():Reg[19]=0x0
lcd_WriteExp():Reg[19]=0x3e
lcd_WriteExp():Reg[19]=0x1e
lcd_ShowHd44780Data: RS RW  [7 6 5 4 3 2 1 0]
lcd_ShowHd44780Data: 0  0   [0 0 0 0 1 1 1 1 ]
lcd_WriteLcd(0x0):0x1
lcd_WriteExp():Reg[19]=0x20
lcd_WriteExp():Reg[19]=0x0
lcd_WriteExp():Reg[19]=0x30
lcd_WriteExp():Reg[19]=0x10
lcd_ShowHd44780Data: RS RW  [7 6 5 4 3 2 1 0]
lcd_ShowHd44780Data: 0  0   [0 0 0 0 0 0 0 1 ]
lcd_WriteLcd(0x0):0x2
lcd_WriteExp():Reg[19]=0x20
lcd_WriteExp():Reg[19]=0x0
lcd_WriteExp():Reg[19]=0x28
lcd_WriteExp():Reg[19]=0x8
lcd_ShowHd44780Data: RS RW  [7 6 5 4 3 2 1 0]
lcd_ShowHd44780Data: 0  0   [0 0 0 0 0 0 1 0 ]
lcd_WriteLcd(0x80):0x30
lcd_WriteExp():Reg[19]=0xb8
lcd_WriteExp():Reg[19]=0x98
lcd_WriteExp():Reg[19]=0xb8
lcd_WriteExp():Reg[19]=0x98
lcd_ShowHd44780Data: RS RW  [7 6 5 4 3 2 1 0]
lcd_ShowHd44780Data: 1  0   [0 0 1 1 0 0 1 1 ]
lcd_WriteLcd(0x80):0x31
lcd_WriteExp():Reg[19]=0xb8
lcd_WriteExp():Reg[19]=0x98
lcd_WriteExp():Reg[19]=0xb8
lcd_WriteExp():Reg[19]=0x98
lcd_ShowHd44780Data: RS RW  [7 6 5 4 3 2 1 0]
lcd_ShowHd44780Data: 1  0   [0 0 1 1 0 0 1 1 ]
lcd_WriteLcd(0x80):0x32
lcd_WriteExp():Reg[19]=0xb8
lcd_WriteExp():Reg[19]=0x98
lcd_WriteExp():Reg[19]=0xb8
lcd_WriteExp():Reg[19]=0x98
lcd_ShowHd44780Data: RS RW  [7 6 5 4 3 2 1 0]
lcd_ShowHd44780Data: 1  0   [0 0 1 1 0 0 1 1 ]
lcd_WriteLcd(0x0):0x80
lcd_WriteExp():Reg[19]=0x22
lcd_WriteExp():Reg[19]=0x2
lcd_WriteExp():Reg[19]=0x22
lcd_WriteExp():Reg[19]=0x2
lcd_ShowHd44780Data: RS RW  [7 6 5 4 3 2 1 0]
lcd_ShowHd44780Data: 0  0   [1 0 0 0 1 0 0 0 ]
lcd_WriteLcd(0x80):0x33
lcd_WriteExp():Reg[19]=0xb8
lcd_WriteExp():Reg[19]=0x98
lcd_WriteExp():Reg[19]=0xb8
lcd_WriteExp():Reg[19]=0x98
lcd_ShowHd44780Data: RS RW  [7 6 5 4 3 2 1 0]
lcd_ShowHd44780Data: 1  0   [0 0 1 1 0 0 1 1 ]
lcd_WriteLcd(0x80):0x34
lcd_WriteExp():Reg[19]=0xb8
lcd_WriteExp():Reg[19]=0x98
lcd_WriteExp():Reg[19]=0xbc
lcd_WriteExp():Reg[19]=0x9c
lcd_ShowHd44780Data: RS RW  [7 6 5 4 3 2 1 0]
lcd_ShowHd44780Data: 1  0   [0 0 1 1 0 1 1 1 ]
lcd_WriteLcd(0x80):0x35
lcd_WriteExp():Reg[19]=0xb8
lcd_WriteExp():Reg[19]=0x98
lcd_WriteExp():Reg[19]=0xbc
lcd_WriteExp():Reg[19]=0x9c
lcd_ShowHd44780Data: RS RW  [7 6 5 4 3 2 1 0]
lcd_ShowHd44780Data: 1  0   [0 0 1 1 0 1 1 1 ]
LCD_Open():OK
LCDd    PID=0
lcdproc PID=0
Kodi    PID=0
rpi_KillProcess(): Friendly ask background thread pid=8435 to exit
PopKodi():exit(254)
